\version "2.23.6"

#(ly:set-option 'warning-as-error #t)

\header {
  texidoc="User-defined bar lines with in-staff segni can be printed
by setting the @code{segnoType}, @code{startRepeatSegnoType},
@code{endRepeatSegnoType}, and @code{doubleRepeatSegnoType} context
properties.

If the user does not define variants of these bar types annotated with
the value of @code{underlyingRepeatType}, LilyPond falls back on those
that are defined.

The output should show two adjacent repeated sections
with unusually ornate bar lines with in-staff segni, followed by an
in-staff segno that is flanked by thick bar lines."
}

\layout {
  ragged-right = ##t
}

%% For a score with span-bars, ":;|]." would need to be defined as well,
%% but we don't need to complicate this test with that.
\defineBarLine "S.[|;:" #'("." "S.[|;:" "   |") % start repeat
\defineBarLine ":;|].S" #'(":;|]." "S" "  |   ") % end repeat
\defineBarLine ":;|]S[|;:" #'(":;|]." "S.[|;:" "  |   |") % double repeat
\defineBarLine ".S." #'("." ".S." " = ") % segno alone

\new Score \with {
  doubleRepeatSegnoType = ":;|]S[|;:"
  endRepeatSegnoType = ":;|].S"
  startRepeatSegnoType = "S.[|;:"
  segnoType = ".S."
  %% omit these to sharpen the focus on the bar lines
  \omit SegnoMark
} \new Staff \fixed c' {
  r2. \repeat unfold 2 { \repeat volta 2 { \inStaffSegno r4 | r2. } }
  \inStaffSegno r4 | r2. \inStaffSegno r4 |
}
